module gitlab.com/gitlab-de/use-cases/cicd-components-catalog/components-templates/golang

go 1.20

require github.com/qeesung/image2ascii v1.0.1

require (
	github.com/aybabtme/rgbterm v0.0.0-20170906152045-cc83f3b3ce59 // indirect
	github.com/mattn/go-isatty v0.0.18 // indirect
	github.com/nfnt/resize v0.0.0-20180221191011-83c6a9932646 // indirect
	github.com/stretchr/testify v1.8.2 // indirect
	github.com/wayneashleyberry/terminal-dimensions v1.1.0 // indirect
	golang.org/x/sys v0.6.0 // indirect
)
